%YAML 1.1
%TAG !u! tag:unity3d.com,2011:
--- !u!21 &2100000
Material:
  serializedVersion: 6
  m_ObjectHideFlags: 0
  m_PrefabParentObject: {fileID: 0}
  m_PrefabInternal: {fileID: 0}
  m_Name: Grass
  m_Shader: {fileID: 4800000, guid: 9ce107479d11178d11005b9844295342, type: 3}
  m_ShaderKeywords: 
  m_LightmapFlags: 5
  m_CustomRenderQueue: 2000
  stringTagMap: {}
  m_SavedProperties:
    serializedVersion: 2
    m_TexEnvs:
      data:
        first:
          name: _MainTex
        second:
          m_Texture: {fileID: 2800000, guid: 5613d8f77202ec4428668ba1fba97be5, type: 3}
          m_Scale: {x: 1, y: 1}
          m_Offset: {x: 0, y: 0}
      data:
        first:
          name: _BumpMap
        second:
          m_Texture: {fileID: 0}
          m_Scale: {x: 1, y: 1}
          m_Offset: {x: 0, y: 0}
      data:
        first:
          name: _DetailNormalMap
        second:
          m_Texture: {fileID: 0}
          m_Scale: {x: 1, y: 1}
          m_Offset: {x: 0, y: 0}
      data:
        first:
          name: _ParallaxMap
        second:
          m_Texture: {fileID: 0}
          m_Scale: {x: 1, y: 1}
          m_Offset: {x: 0, y: 0}
      data:
        first:
          name: _OcclusionMap
        second:
          m_Texture: {fileID: 0}
          m_Scale: {x: 1, y: 1}
          m_Offset: {x: 0, y: 0}
      data:
        first:
          name: _EmissionMap
        second:
          m_Texture: {fileID: 0}
          m_Scale: {x: 1, y: 1}
          m_Offset: {x: 0, y: 0}
      data:
        first:
          name: _DetailMask
        second:
          m_Texture: {fileID: 0}
          m_Scale: {x: 1, y: 1}
          m_Offset: {x: 0, y: 0}
      data:
        first:
          name: _DetailAlbedoMap
        second:
          m_Texture: {fileID: 0}
          m_Scale: {x: 1, y: 1}
          m_Offset: {x: 0, y: 0}
      data:
        first:
          name: _MetallicGlossMap
        second:
          m_Texture: {fileID: 0}
          m_Scale: {x: 1, y: 1}
          m_Offset: {x: 0, y: 0}
      data:
        first:
          name: _ToonShade
        second:
          m_Texture: {fileID: 0}
          m_Scale: {x: 1, y: 1}
          m_Offset: {x: 0, y: 0}
      data:
        first:
          name: _DetailTex
        second:
          m_Texture: {fileID: 0}
          m_Scale: {x: 1, y: 1}
          m_Offset: {x: 0, y: 0}
    m_Floats:
      data:
        first:
          name: _SrcBlend
        second: 1
      data:
        first:
          name: _DstBlend
        second: 0
      data:
        first:
          name: _Cutoff
        second: 0.5
      data:
        first:
          name: _Shininess
        second: 0.1
      data:
        first:
          name: _WindQuality
        second: 0
      data:
        first:
          name: PixelSnap
        second: 0
      data:
        first:
          name: _Outline
        second: 0.005
      data:
        first:
          name: _Parallax
        second: 0.02
      data:
        first:
          name: _ZWrite
        second: 1
      data:
        first:
          name: _Glossiness
        second: 0.5
      data:
        first:
          name: _BumpScale
        second: 1
      data:
        first:
          name: _OcclusionStrength
        second: 1
      data:
        first:
          name: _DetailNormalMapScale
        second: 1
      data:
        first:
          name: _UVSec
        second: 0
      data:
        first:
          name: _Mode
        second: 0
      data:
        first:
          name: _Metallic
        second: 0
      data:
        first:
          name: _Cull
        second: 2
    m_Colors:
      data:
        first:
          name: _EmissionColor
        second: {r: 0, g: 0, b: 0, a: 1}
      data:
        first:
          name: _Color
        second: {r: 1, g: 1, b: 1, a: 1}
      data:
        first:
          name: _SpecColor
        second: {r: 0, g: 0, b: 0, a: 0}
      data:
        first:
          name: _OutlineColor
        second: {r: 0, g: 0, b: 0, a: 1}
      data:
        first:
          name: _HueVariation
        second: {r: 1, g: 0.5, b: 0, a: 0.1}
